{
	"data": [{
		"name": "足球",
		"introduce": "足球（Football[英]、 Soccer[美]）是一项以脚为主，控制和支配球，两支球队按照一定规则在同一块长方形球场上互相进行进攻、防守对抗的体育运动项目。因足球运动对抗性强、战术多变、参与人数多等特点，故被称为“世界第一运动”。是全球体育界最具影响力的单项体育运动。标准的足球比赛由两队各派10名球员与1名守门员，共11人，在长方形的草地球场上对抗、进攻、防守。比赛目的是尽量将足球射入对方的球门内，每射入一球就可以得到一分，当比赛完毕后，得分多的一队则胜出。如果在比赛规定时间内得分相同，则须看比赛章则而定，可以抽签、加时再赛或互射点球(十二码) 等形式比赛分高下。足球比赛中除了守门员可以在己方禁区内利用手部接触足球外，球场上每名球员只可以利用手以外的身体其他部分控制足球(开界外球例外)。",
		"img_list": [{
			"urlImage": "https://gimg2.baidu.com/image_search/src=http%3A%2F%2Fimg.sccnn.com%2Fbimg%2F338%2F12683.jpg"
		}, {
			"urlImage": "https://gimg2.baidu.com/image_search/src=http%3A%2F%2Fpicapi.ooopic.com%2F10%2F49%2F30%2F96b1OOOPIC5f.jpg"
		}, {
			"urlImage": "https://gimg2.baidu.com/image_search/src=http%3A%2F%2Fwww.2008php.com%2F2013_Website_appreciate%2F2013-10-20%2F20131020020433.jpg"
		}, {
			"urlImage": "https://gimg2.baidu.com/image_search/src=http%3A%2F%2Fpic200.nipic.com%2Ffile%2F20181223%2F27941098_135410850088_2.jpg"
		}, {
			"urlImage": "https://gimg2.baidu.com/image_search/src=http%3A%2F%2Fwww.taopic.com%2Fuploads%2Fallimg%2F110308%2F341-11030P5250415.jpg"
		}, {
			"urlImage": "https://gimg2.baidu.com/image_search/src=http%3A%2F%2Fimg.juimg.com%2Ftuku%2Fyulantu%2F140626%2F330841-14062612153541.jpg"
		}, {
			"urlImage": "https://gimg2.baidu.com/image_search/src=http%3A%2F%2Fimg.juimg.com%2Ftuku%2Fyulantu%2F140625%2F330871-14062522420590.jpg"
		}, {
			"urlImage": "https://gimg2.baidu.com/image_search/src=http%3A%2F%2Fimg.taopic.com%2Fuploads%2Fallimg%2F140513%2F240451-1405130K226100.jpg"
		}, {
			"urlImage": "https://gimg2.baidu.com/image_search/src=http%3A%2F%2Fwww.talkimages.cn%2Fimages%2Fmedium%2F20133031%2Ftkf001_563002.jpg"
		}, {
			"urlImage": "https://gimg2.baidu.com/image_search/src=http%3A%2F%2Fpic1.zhimg.com%2Fv2-5465938859b78d85386d9bdbf9a86ce9_1440w.jpg"
		}, {
			"urlImage": "https://gimg2.baidu.com/image_search/src=http%3A%2F%2Fimg.sccnn.com%2Fbimg%2F338%2F31215.jpg"
		}, {
			"urlImage": "https://gimg2.baidu.com/image_search/src=http%3A%2F%2Fimg.61980.cn%2F17289%2F2021%2F0326%2F20210326kmd1616727375.jpg"
		}, {
			"urlImage": "https://gimg2.baidu.com/image_search/src=http%3A%2F%2Fimg1.juimg.com%2F170807%2F330508-1FPF4351778.jpg"
		}, {
			"urlImage": "https://gimg2.baidu.com/image_search/src=http%3A%2F%2Fpic.soutu123.cn%2Felement_origin_min_pic%2F17%2F03%2F02%2Fee95b8d7701b762e7b5d829cfd0f5c16.jpg"
		}, {
			"urlImage": "https://gimg2.baidu.com/image_search/src=http%3A%2F%2Fpic.16pic.com%2F00%2F12%2F34%2F16pic_1234145_b.jpg"
		}, {
			"urlImage": "https://gimg2.baidu.com/image_search/src=http%3A%2F%2Fycimg.woofeng.cn%2F20180515%2F20180515232336_93694.jpg"
		}, {
			"urlImage": "https://gimg2.baidu.com/image_search/src=http%3A%2F%2Fpic1.zhimg.com%2Fv2-cdf6db330400b63c74890ba0d40e6a5c_1440w.jpg"
		}, {
			"urlImage": "https://gimg2.baidu.com/image_search/src=http%3A%2F%2Fpic.baike.soso.com%2Fp%2F20120701%2F20120701205839-1129280358.jpg"
		}, {
			"urlImage": "https://gimg2.baidu.com/image_search/src=http%3A%2F%2Fimg.ivsky.com%2Fimg%2Ftupian%2Fpre%2F201811%2F04%2Fzuqiu-013.jpg"
		}, {
			"urlImage": "https://gimg2.baidu.com/image_search/src=http%3A%2F%2Fimg.taopic.com%2Fuploads%2Fallimg%2F120529%2F189130-12052916425734.jpg"
		}, {
			"urlImage": "https://gimg2.baidu.com/image_search/src=http%3A%2F%2Fimg.taopic.com%2Fuploads%2Fallimg%2F140513%2F240451-1405130K226100.jpg"
		}, {
			"urlImage": "https://gimg2.baidu.com/image_search/src=http%3A%2F%2Fwww.2008php.com%2F2012_Website_appreciate%2F2012-06-22%2F20120622133554.jpg"
		}, {
			"urlImage": "https://gimg2.baidu.com/image_search/src=http%3A%2F%2Fimg1.juimg.com%2F170324%2F330717-1F32422555085.jpg"
		}]
	}, {
		"name": "篮球",
		"introduce": "篮球（basketball），是以手为中心的身体对抗性体育运动，是奥运会核心比赛项目。篮球运动是以投篮、上篮和扣篮为中心的对抗性体育运动，是全世界无数人热爱的运动，篮球运动充满活力，不仅能提高参与者的身体素质、锻炼意志，还能培养团队精神、增强使命感和荣誉意识。",
		"img_list": [{
			"urlImage": "https://gimg2.baidu.com/image_search/src=http%3A%2F%2Fzkres2.myzaker.com%2F202002%2F5e5793128e9f09636430112b_1024.jpg"
		}, {
			"urlImage": "https://gimg2.baidu.com/image_search/src=http%3A%2F%2Ffbimg.fangxinxue.net%2Fplan%2F202108%2F10%2F162857651137386.png"
		}, {
			"urlImage": "https://gimg2.baidu.com/image_search/src=http%3A%2F%2Ffbimg.fangxinxue.net%2Fplan%2F202108%2F04%2F162806309519161.png"
		}, {
			"urlImage": "https://gimg2.baidu.com/image_search/src=http%3A%2F%2Fimg.86ps.com%2Fimages%2F202110%2F337753347b0d177eef6b9ffef686fb2c.png"
		}, {
			"urlImage": "https://gimg2.baidu.com/image_search/src=http%3A%2F%2Fimg.yzt-tools.com%2F20190505%2F36d272c2b2d93a51f84147d0297d4b4d.jpg"
		}, {
			"urlImage": "https://gimg2.baidu.com/image_search/src=http%3A%2F%2Fqny.smzdm.com%2F202107%2F02%2F60dea3e4d56e62713.jpg"
		}, {
			"urlImage": "https://gimg2.baidu.com/image_search/src=http%3A%2F%2F16686589.s21i.faiusr.com%2F2%2FABUIABACGAAg2cGE2AUohNa5qAQwpQk4jwY.jpg"
		}, {
			"urlImage": "https://gimg2.baidu.com/image_search/src=http%3A%2F%2Fp4.itc.cn%2Fq_70%2Fimages03%2F20210930%2F2086dac7c96d404f87e77cf126409805.jpeg"
		}, {
			"urlImage": "https://gimg2.baidu.com/image_search/src=http%3A%2F%2Fimg.taoxv.com%2Fbao%2Fuploaded%2Fi3%2F738840638%2FO1CN01lhahVW1GaFOoFlBnx_%21%210-item_pic.jpg_q90.jpg"
		}, {
			"urlImage": "https://gimg2.baidu.com/image_search/src=http%3A%2F%2Fp5.itc.cn%2Fq_70%2Fimages03%2F20201026%2Fc7b1a360583640289191a4186fcc5691.png"
		}, {
			"urlImage": "https://gimg2.baidu.com/image_search/src=http%3A%2F%2Fgss0.baidu.com%2F94o3dSag_xI4khGko9WTAnF6hhy%2Fzhidao%2Fpic%2Fitem%2F500fd9f9d72a6059ad35699e2334349b033bba09.jpg"
		}, {
			"urlImage": "https://gimg2.baidu.com/image_search/src=http%3A%2F%2Fdpic.tiankong.com%2F7f%2F1s%2FQJ6491748492.jpg"
		}, {
			"urlImage": "https://gimg2.baidu.com/image_search/src=http%3A%2F%2Fpic1.win4000.com%2Fwallpaper%2F0%2F56da54660b192.jpg"
		}, {
			"urlImage": "https://gimg2.baidu.com/image_search/src=http%3A%2F%2Fpic.16pic.com%2F00%2F38%2F38%2F16pic_3838182_b.jpg"
		}, {
			"urlImage": "https://gimg2.baidu.com/image_search/src=http%3A%2F%2Fup.enterdesk.com%2Fedpic_source%2Fc2%2F16%2F18%2Fc21618d3e406ed7cb19cbdbab9733c0b.jpg"
		}, {
			"urlImage": "https://gimg2.baidu.com/image_search/src=http%3A%2F%2Fimg30.51tietu.net%2Fpic%2F2016-080720%2F20160807203524xuungzc22sc293611.jpg"
		}, {
			"urlImage": "https://gimg2.baidu.com/image_search/src=http%3A%2F%2Fimg4.duitang.com%2Fuploads%2Fitem%2F201311%2F21%2F20131121222944_f3dA2.jpeg"
		}, {
			"urlImage": "https://gimg2.baidu.com/image_search/src=http%3A%2F%2Fimg.zcool.cn%2Fcommunity%2F0130bc565c5fb96ac7253403a1a6e6.jpg"
		}, {
			"urlImage": "https://gimg2.baidu.com/image_search/src=http%3A%2F%2Ftu.ossfiles.cn%3A9186%2Fgroup3%2FM00%2F05%2F90%2FrBpVfl72sbGAVKMkAAEUrYCRgzk501.jpg"
		}]
	}, {
		"name": "乒乓球",
		"introduce": "乒乓（table tennis）指乒乓球运动（或叫做“table tennis（桌上网球）”）乒乓球是球类运动之一。在中间隔有横网的长274厘米、宽152厘米、高76厘米的球台上进行。球直径40.00毫米，重量2.40-2.53克，白或黄色，用赛璐璐或塑料制成，打时有“乒乓”声，故名。运动员各站球台一侧，用球拍击球，击法有挡、抽、削、搓、拉等。球须在台上反弹后才能还击过网。以落在对方台面上为有效。比赛以11分为一局（原以21分为一局），采用三局二胜或五局三胜制。比赛分团体、单打、双打等数种。乒乓球起源于英国，“乒乓球”一名起源自1900年，因其打击时发出“Ping Pong”的声音而得名。在中国大陆以“乒乓球”作为它的官方名称，中国香港及澳门等地区亦同。",
		"img_list": [{
			"urlImage": "https://gimg2.baidu.com/image_search/src=http%3A%2F%2Fimage.codes51.com%2Farticle%2Fimage%2F20160524%2F20160524073026_7147.jpg"
		}, {
			"urlImage": "https://gimg2.baidu.com/image_search/src=http%3A%2F%2Fimg.tupian114.com%2F20210726%2F0147393661.jpg.238.jpg"
		}, {
			"urlImage": "https://gimg2.baidu.com/image_search/src=http%3A%2F%2Fwww.1mpi.com%2Fpic%2F291fdfd35a6dcc73f97be4d7%2F1-810-jpg_6-1080-0-0-1080.jpg"
		}, {
			"urlImage": "https://gimg2.baidu.com/image_search/src=http%3A%2F%2F5b0988e595225.cdn.sohucs.com%2Fimages%2F20181218%2Ff3f5c19434cc451aabe849dd4fcbb3d9.jpeg"
		}, {
			"urlImage": "https://gimg2.baidu.com/image_search/src=http%3A%2F%2Fku.90sjimg.com%2Fback_pic%2F05%2F51%2F23%2F265adfafc673676.jpg"
		}, {
			"urlImage": "https://gimg2.baidu.com/image_search/src=http%3A%2F%2Fimg.91huoke.com%2Fxxfl%2Fhk91%2Fcustomer%2F48672%2FIHUOsR2LHJf75yaLljjUaS47Um7auoxiyEHk9V2Z.jpeg"
		}, {
			"urlImage": "https://gimg2.baidu.com/image_search/src=http%3A%2F%2Ftyj.shanxi.gov.cn%2Fupload%2F201909%2F09%2F201909091740139814.jpg"
		}, {
			"urlImage": "https://gimg2.baidu.com/image_search/src=http%3A%2F%2F5b0988e595225.cdn.sohucs.com%2Fimages%2F20170914%2F74079e17908648c19ed8a44643a2fe91.jpeg"
		}, {
			"urlImage": "https://ss3.baidu.com/-fo3dSag_xI4khGko9WTAnF6hhy/baike/s%3D220/sign=151817a336d12f2eca05a9627fc3d5ff/b03533fa828ba61ec627be5b4134970a314e59fc.jpg"
		}, {
			"urlImage": "https://gimg2.baidu.com/image_search/src=http%3A%2F%2Fimage.tupian114.com%2F20121015%2F13012944.jpg"
		}, {
			"urlImage": "https://gimg2.baidu.com/image_search/src=http%3A%2F%2Fimg.78608.cn%2F20356%2F2021%2F0825%2F20210825han1629861805.jpg"
		}, {
			"urlImage": "https://gimg2.baidu.com/image_search/src=http%3A%2F%2Fimg.56390.cn%2F20356%2F2021%2F0825%2F20210825fki1629861806.jpg"
		}, {
			"urlImage": "https://gimg2.baidu.com/image_search/src=http%3A%2F%2Fimg.91huoke.com%2Fxxfl%2Fhk91%2Fcustomer%2F48672%2FQHJjta0K4LxaFZhB1yIXmxPl99dO21kYkB0TjAH6.jpeg"
		}, {
			"urlImage": "https://gimg2.baidu.com/image_search/src=http%3A%2F%2Fp3.itc.cn%2Fq_70%2Fimages03%2F20210609%2F50dc45ae902e41d09cdeb5c035bfe579.jpeg"
		}, {
			"urlImage": "https://gimg2.baidu.com/image_search/src=http%3A%2F%2Fi05.c.aliimg.com%2Fimg%2Fibank%2F2014%2F590%2F178%2F1413871095_1052123508.jpg"
		}, {
			"urlImage": "https://gimg2.baidu.com/image_search/src=http%3A%2F%2Fcbu01.alicdn.com%2Fimg%2Fibank%2F2016%2F725%2F818%2F2973818527_1128173524.jpg"
		}, {
			"urlImage": "https://gimg2.baidu.com/image_search/src=http%3A%2F%2Fi00.c.aliimg.com%2Fimg%2Fibank%2F2014%2F996%2F502%2F1811205699_1860911271.jpg"
		}, {
			"urlImage": "https://gimg2.baidu.com/image_search/src=http%3A%2F%2Fm.360buyimg.com%2Fn12%2Fjfs%2Ft2359%2F352%2F2110682406%2F89578%2F4a2f63d7%2F5699bcceN88e94ce4.jpg"
		}, {
			"urlImage": "https://gimg2.baidu.com/image_search/src=http%3A%2F%2Fpic.51yuansu.com%2Fpic3%2Fcover%2F02%2F90%2F22%2F5aba2234be1ee_610.jpg"
		}, {
			"urlImage": "https://gimg2.baidu.com/image_search/src=http%3A%2F%2Fimg14.360buyimg.com%2Fn1%2Fjfs%2Ft1%2F9576%2F39%2F9110%2F77197%2F5c14a1cbEed81166e%2F658c0846e4cb1c93.jpg"
		}, {
			"urlImage": "https://gimg2.baidu.com/image_search/src=http%3A%2F%2Fcbu01.alicdn.com%2Fimg%2Fibank%2F2017%2F968%2F422%2F4062224869_1178403003.jpg"
		}]
	}, {
		"name": "羽毛球",
		"introduce": "羽毛球（Badminton）是一项隔着球网，使用长柄网状球拍击打用羽毛和软木制作而成的一种小型球类的室内运动项目。羽毛球比赛在长方形的场地上进行，场地中间有网相隔，双方运用各种发球、击球和移动等技战术，将球在网上往返对击，以不使球落在本方有效区域内，或使对方击球失误为胜。羽毛球运动的起源有很多说法，但最认可的是起源于14—15世纪的日本。而现代羽毛球运动是起源于印度，形成于英国。1875年，羽毛球运动正式出现于人们的视野中。1893年，英国的羽毛球俱乐部逐渐发展起来，成立了第一个羽毛球协会，规定了场地的要求和运动的标准。1939年，国际羽联通过了各会员国共同遵守的第一部《羽毛球规则》。2006年，国际羽毛球联合会（IBF）的正式名称更改为羽毛球世界联合会（BWF），即世界羽联。",
		"img_list": [{
			"urlImage": "https://gimg2.baidu.com/image_search/src=http%3A%2F%2Ffbimg.fangxinxue.net%2Fplan%2F202108%2F05%2F162814990972059.jpeg"
		}, {
			"urlImage": "https://gimg2.baidu.com/image_search/src=http%3A%2F%2Ffbimg.fangxinxue.net%2F202108%2F05%2F15000198.png"
		}, {
			"urlImage": "https://gimg2.baidu.com/image_search/src=http%3A%2F%2Fi-1.rar8.net%2F2021%2F10%2F15%2F41d3f9ee-6fb6-4c9d-9230-4c4a937ab0f0.png"
		}, {
			"urlImage": "https://gimg2.baidu.com/image_search/src=http%3A%2F%2Fpic.90sjimg.com%2Fdesign%2F00%2F75%2F92%2F97%2F5930dd327b3b0.png"
		}, {
			"urlImage": "https://gimg2.baidu.com/image_search/src=http%3A%2F%2Ffbimg.fangxinxue.net%2Fplan%2F202108%2F05%2F162814990972059.jpeg"
		}, {
			"urlImage": "https://gimg2.baidu.com/image_search/src=http%3A%2F%2Ffbimg.fangxinxue.net%2Fplan%2F202108%2F10%2F162857664151162.png"
		}, {
			"urlImage": "https://gimg2.baidu.com/image_search/src=http%3A%2F%2Fc.px.jiaodong.net%2Fupimg%2F62ad6%2F32320_4685ee.jpg"
		}, {
			"urlImage": "https://gimg2.baidu.com/image_search/src=http%3A%2F%2Fp6.itc.cn%2Fimages01%2F20211025%2F27de571fdf8142cdb917e99957709b54.jpg"
		}, {
			"urlImage": "https://gimg2.baidu.com/image_search/src=http%3A%2F%2Fpic.qjimage.com%2Fchineseview092%2Fhigh%2F482-7025.jpg"
		}, {
			"urlImage": "https://gimg2.baidu.com/image_search/src=http%3A%2F%2Fimg01.lietu66.com%2F101015571653.jpg_h620w860.jpg"
		}, {
			"urlImage": "https://gimg2.baidu.com/image_search/src=http%3A%2F%2Fbpic.588ku.com%2Fback_water_img%2F19%2F04%2F11%2F09a43fb9b7800371f63059747c8ddb91b0.jpg"
		}, {
			"urlImage": "https://gimg2.baidu.com/image_search/src=http%3A%2F%2Fimg.zcool.cn%2Fcommunity%2F01a958595df62ba8012193a31ce0bf.JPG%403000w_1l_0o_100sh.jpg"
		}, {
			"urlImage": "https://gimg2.baidu.com/image_search/src=http%3A%2F%2Fwww.yuntu.cn%2Fd%2Ffile%2F1904%2F950fdebdcb4368fc320daadb9e4680d7.jpg"
		}, {
			"urlImage": "https://gimg2.baidu.com/image_search/src=http%3A%2F%2Fpx.thea.cn%2FPublic%2FUpload%2FUploadfiles%2Fimage%2F20190214%2F20190214111015_76272.jpg"
		}, {
			"urlImage": "https://gimg2.baidu.com/image_search/src=http%3A%2F%2Fpic.soutu123.cn%2Fback_pic%2F04%2F64%2F49%2F025874dd9e946ef.jpg"
		}, {
			"urlImage": "https://gimg2.baidu.com/image_search/src=http%3A%2F%2Fimg.pconline.com.cn%2Fimages%2Fupload%2Fupc%2Ftx%2Fitbbs%2F1311%2F01%2Fc22%2F28223590_1383297600723_mthumb.jpg"
		}]
	}, {
		"name": "网球",
		"introduce": "网球（Tennis），是球类运动项目之一。有效网球运动场地是一个长方形，长为23.77米，单打场地宽为8.23米，双打场地宽为10.97米。中间隔有网，比赛双方各占球场的一方，球员用网球拍击球。网球运动孕育在法国，诞生在英国，普及和形成的高潮在美国。其最早起源于12-13世纪的法国。1896年在雅典举行的第一届现代奥运会上，网球的男子单打与双打被列为正式比赛，后来，由于国际奥委会和国际网球联合会在“业余运动员”问题上有分歧，已经连续进行了7届的奥运会网球比赛项目被取消。直到1984年的洛杉矶奥运会上，网球才被列为奥运项目。1988年在汉城奥运会上，网球重新被列为正式比赛项目。",
		"img_list": [{
			"urlImage": "https://gimg2.baidu.com/image_search/src=http%3A%2F%2F05.imgmini.eastday.com%2Fmobile%2F20170522%2F20170522133352_3018e02aca3728af6563c5a0f75818f8_1.jpeg"
		}, {
			"urlImage": "https://gimg2.baidu.com/image_search/src=http%3A%2F%2Fpic1.zhimg.com%2Fv2-07d410887ec18df53a405568cb316cfc_r.jpg"
		}, {
			"urlImage": "https://gimg2.baidu.com/image_search/src=http%3A%2F%2Ftrademark-pics-search.oss-cn-shanghai.aliyuncs.com%2Fsmall%2Ft4519074536211456.jpg"
		}, {
			"urlImage": "https://gimg2.baidu.com/image_search/src=http%3A%2F%2Fwww.2008php.com%2F2014_Website_appreciate%2F2014-06-28%2F20140628011656QDMjLQDMjL.jpg"
		}, {
			"urlImage": "https://gimg2.baidu.com/image_search/src=http%3A%2F%2Fimg.wenjiwu.com%2Flife%2F201701%2F5-1F1110R622.jpg"
		}, {
			"urlImage": "https://gimg2.baidu.com/image_search/src=http%3A%2F%2Fbpic.588ku.com%2Felement_pic%2F17%2F02%2F14%2F15db37382bbea918a4641190584a5451.jpg"
		}, {
			"urlImage": "https://gimg2.baidu.com/image_search/src=http%3A%2F%2Fwww.boxiangyuan.com%2FImages%2F_Products%2F2012021875923393_824_614.jpg"
		}, {
			"urlImage": "https://gimg2.baidu.com/image_search/src=http%3A%2F%2Fpic1.win4000.com%2Fwallpaper%2F4%2F53b0cba014d30.jpg"
		}, {
			"urlImage": "https://gimg2.baidu.com/image_search/src=http%3A%2F%2Fpic3.zhimg.com%2Fv2-452cd2339a34b8aa62c347851424d0ee_r.jpg"
		}, {
			"urlImage": "https://gimg2.baidu.com/image_search/src=http%3A%2F%2Fimg.yzcdn.cn%2Fupload_files%2F2018%2F06%2F25%2FFvjkQcchqlUTcZyb2l6yYtFuEGkD.jpg"
		}, {
			"urlImage": "https://gimg2.baidu.com/image_search/src=http%3A%2F%2Ftyunfile.71360.com%2FUploadFile%2Fbjside8%2F637643755488430376%2F4088516.png"
		}, {
			"urlImage": "https://gimg2.baidu.com/image_search/src=http%3A%2F%2Ftyunfile.71360.com%2FUploadFile%2Fbjside8%2F637643755506408912%2F9383596.png"
		}]
	}]
}